tidyGenR Benchmarking - Summary tables
…
$gadd45g_F
# A tibble: 22 × 46
# Rowwise: 
   sequence                  md5   BOR1061_gadd45g_F_fi…¹ BOR1063_gadd45g_F_fi…²
   <chr>                     <chr>                  <int>                  <int>
 1 GCCCCTTAGCCTAGACCTGCCTGG… 8b7f…                    830                    894
 2 GCCCCTTAGCCTAGACCTGCCTGG… a11b…                     24                     30
 3 GCCCCTTAGCCTAGACCTGCCTGG… a791…                     14                     17
 4 GCCCCTTAGCCTAGACCTGCCTGG… ab63…                     12                     10
 5 GCCCCTTAGCCTAGACCTGCCTGG… 95ac…                     11                     10
 6 GCCCCTTAGCCTAGACCTGCCTGG… 380f…                     11                     12
 7 GCCCCTTAGCCTAGACCTGCCTGG… c809…                     10                      8
 8 GCCCCTTAGCCTAGACCTGCCTGG… 6b76…                      0                      8
 9 GCCCCTTAGCCTAGACCTGCCTGG… 51b6…                      0                      6
10 GCCCCTTAGCCTAGACCTGCCTGG… 419b…                      7                      5
# ℹ 12 more rows
# ℹ abbreviated names: ¹​BOR1061_gadd45g_F_filt.fastq.gz,
#   ²​BOR1063_gadd45g_F_filt.fastq.gz
# ℹ 42 more variables: BOR1069_gadd45g_F_filt.fastq.gz <int>,
#   BOR1070_gadd45g_F_filt.fastq.gz <int>,
#   BOR1071_gadd45g_F_filt.fastq.gz <int>,
#   BOR1074_gadd45g_F_filt.fastq.gz <int>, …
…
$il34_F
# A tibble: 21 × 46
# Rowwise: 
   sequence                  md5   BOR1061_il34_F_filt.…¹ BOR1063_il34_F_filt.…²
   <chr>                     <chr>                  <int>                  <int>
 1 TCACGAGGCTGGTGAGGACCCTTC… 31d3…                   2506                      0
 2 TCACGAGGCTGGTGAGGACCCTTC… e4ee…                      0                   2343
 3 TCACGAGGCTGGTGAGGACCCTTC… 2199…                      0                      0
 4 TCACGAGGCTGGTGAGGACCCTTC… 8e4e…                     44                      0
 5 TCACGAGGCTGGTGAGGACCCTTC… c0a9…                     29                      0
 6 TCACGAGGCTGGTGAGGACCCTTC… b575…                     30                      0
 7 TCACGAGGCTGGTGAGGACCCTTC… 9596…                     34                      0
 8 TCACGAGGCTGGTGAGGACCCTTC… b3b4…                     19                      0
 9 TCACGAGGCTGGTGAGGACCCTTC… cfe4…                     19                      0
10 TCACGAGGCTGGTGAGGACCCTTC… 9bcf…                     10                      0
# ℹ 11 more rows
# ℹ abbreviated names: ¹​BOR1061_il34_F_filt.fastq.gz,
#   ²​BOR1063_il34_F_filt.fastq.gz
# ℹ 42 more variables: BOR1069_il34_F_filt.fastq.gz <int>,
#   BOR1070_il34_F_filt.fastq.gz <int>, BOR1071_il34_F_filt.fastq.gz <int>,
#   BOR1074_il34_F_filt.fastq.gz <int>, BOR1075_il34_F_filt.fastq.gz <int>,
#   BOR1076_il34_F_filt.fastq.gz <int>, BOR1077_il34_F_filt.fastq.gz <int>, …
…
$p2rx1_F
# A tibble: 23 × 46
# Rowwise: 
   sequence                  md5   BOR1061_p2rx1_F_filt…¹ BOR1063_p2rx1_F_filt…²
   <chr>                     <chr>                  <int>                  <int>
 1 CCACCCTTCTCCTGGACCCACAGG… 03ad…                      0                   2616
 2 CCCACCCTTCTCCTGGACCCACAG… 5b8c…                   2327                      0
 3 CCACCCTTCTCCTGGACCCACAGG… 698d…                      0                     16
 4 CCACCCTTCTCCTGGACCCACAGG… 601d…                      0                     18
 5 CCACCCTTCTCCTGGACCCACAGG… 53f4…                      0                     19
 6 CCACCCTTCTCCTGGACCCACAGG… 8545…                      0                     12
 7 CCACCCTTCTCCTGGACCCACAGG… f91d…                      0                      9
 8 CCCACCCTTCTCCTGGACCCACAG… bd34…                     32                      0
 9 CCCACCCTTCTCCTGGACCCACAG… 7321…                     24                      0
10 CCCACCCTTCTCCTGGACCCACAG… 319f…                     20                      0
# ℹ 13 more rows
# ℹ abbreviated names: ¹​BOR1061_p2rx1_F_filt.fastq.gz,
#   ²​BOR1063_p2rx1_F_filt.fastq.gz
# ℹ 42 more variables: BOR1069_p2rx1_F_filt.fastq.gz <int>,
#   BOR1070_p2rx1_F_filt.fastq.gz <int>, BOR1071_p2rx1_F_filt.fastq.gz <int>,
#   BOR1074_p2rx1_F_filt.fastq.gz <int>, BOR1075_p2rx1_F_filt.fastq.gz <int>,
#   BOR1076_p2rx1_F_filt.fastq.gz <int>, BOR1077_p2rx1_F_filt.fastq.gz <int>, …
…
$usp20_R
# A tibble: 21 × 46
# Rowwise: 
   sequence                  md5   BOR1061_usp20_R_filt…¹ BOR1063_usp20_R_filt…²
   <chr>                     <chr>                  <int>                  <int>
 1 GGGCCCTGGCTCTGCAAAGGTGTT… 2a43…                   2973                   2575
 2 GGGCCCTGGCTCTGCAAAGGTGTT… b03a…                      0                      0
 3 GGGCCCTGGCTCTGCAAAGGTGTT… ad64…                     48                     34
 4 GGGCCCTGGCTCTGCAAAGGTGTT… 9a9d…                     51                     35
 5 GGGCCCTGGCTCTGCAAAGGTGTT… 2c8f…                     28                     27
 6 GGGCCCTGGCTCTGCAAAGGTGTT… 2c21…                     25                     22
 7 GGGCCCTGGCTCTGCAAAGGTGTT… e8f6…                     27                     16
 8 GGGCCCTGGCTCTGCAAAGGTGTT… 354d…                     15                     18
 9 GGGCCCTGGCTCTGCAAAGGTGTT… eb42…                     15                     26
10 GGGCCCTGGCTCTGCAAAGGTGTT… 66d8…                     15                     15
# ℹ 11 more rows
# ℹ abbreviated names: ¹​BOR1061_usp20_R_filt.fastq.gz,
#   ²​BOR1063_usp20_R_filt.fastq.gz
# ℹ 42 more variables: BOR1069_usp20_R_filt.fastq.gz <int>,
#   BOR1070_usp20_R_filt.fastq.gz <int>, BOR1071_usp20_R_filt.fastq.gz <int>,
#   BOR1074_usp20_R_filt.fastq.gz <int>, BOR1075_usp20_R_filt.fastq.gz <int>,
#   BOR1076_usp20_R_filt.fastq.gz <int>, BOR1077_usp20_R_filt.fastq.gz <int>, …
…
